<svg xmlns="http://www.w3.org/2000/svg" width="76.243" height="76.082" viewBox="0 0 76.243 76.082">
  <g id="Gold_diamond" data-name="Gold diamond" transform="translate(76.243) rotate(90)">
    <rect id="Rectangle_2458" data-name="Rectangle 2458" width="53.688" height="53.688" transform="translate(38.119 0) rotate(45)" fill="#ffc627"/>
    <path id="Path_1276" data-name="Path 1276" d="M0,0H38.164V38.28Z" transform="translate(0 37.963)" fill="#f9d677"/>
  </g>
</svg>
