<svg xmlns="http://www.w3.org/2000/svg" width="433.167" height="556.97" viewBox="0 0 433.167 556.97">
  <g id="Financial_Aid_Graphic" data-name="Financial Aid Graphic" transform="translate(216.583 278.484)">
    <g id="Group_5392" data-name="Group 5392" transform="translate(-216.583 -278.485)">
      <g id="Layer_1" data-name="Layer 1">
        <g id="Group_5391" data-name="Group 5391">
          <g id="Group_5378" data-name="Group 5378" transform="translate(67.913 55.754)">
            <g id="Group_5376" data-name="Group 5376" transform="translate(12.668)">
              <path id="Path_11025" data-name="Path 11025" d="M175.438,181.829V163.673a3.05,3.05,0,0,0-.524-1.811,1.668,1.668,0,0,0-1.334-.762h-2.43l-.572.1a2.475,2.475,0,0,0-1.334,2.383l-.1,7.863a.191.191,0,0,1-.048.143V204.75h.048v18.156a3.05,3.05,0,0,0,.524,1.811,1.668,1.668,0,0,0,1.334.762h2.43l.572-.1A2.475,2.475,0,0,0,175.343,223l.1-7.863a.191.191,0,0,1,.048-.143V181.829Z" transform="translate(-169.1 -161.1)" fill="#fff"/>
              <path id="Path_11026" data-name="Path 11026" d="M179.812,181.829V163.673a3.05,3.05,0,0,0-.524-1.811,1.668,1.668,0,0,0-1.334-.762H177a1.668,1.668,0,0,1,1.334.762,3.05,3.05,0,0,1,.524,1.811v18.156h.048V215a.191.191,0,0,0-.048.143l-.1,7.863a2.475,2.475,0,0,1-1.334,2.383l-.334.1h.762l.572-.1A2.475,2.475,0,0,0,179.764,223l.1-7.863a.19.19,0,0,1,.048-.143V181.829Z" transform="translate(-173.235 -161.1)" fill="#cacaca"/>
            </g>
            <path id="Path_11027" data-name="Path 11027" d="M169.814,181.685c-2.621-2.573-6.195-3.955-10.674-4.1s-8.1,1-10.96,3.431a12.437,12.437,0,0,0-4.289,8.292,2.1,2.1,0,0,0,2,2.287l2.621.1a2.049,2.049,0,0,0,2.1-1.763,6.671,6.671,0,0,1,2.192-4.336,8.678,8.678,0,0,1,6.052-1.811,8.125,8.125,0,0,1,5.909,2.24,7.826,7.826,0,0,1,1.954,5.861c-.1,3.431-1.144,5.718-3.145,6.767s-3,.905-6.386,1.477l.334,5.575h.1c5,0,8.863-1,11.532-2.954s4.289-5.528,4.432-10.2S172.482,184.306,169.814,181.685Z" transform="translate(-143.231 -169.724)" fill="#fff"/>
            <path id="Path_11028" data-name="Path 11028" d="M178.513,181.677c-2.621-2.573-6.195-3.955-10.674-4.1a17.489,17.489,0,0,0-7.339,1.239,20.064,20.064,0,0,1,3.812-.238,15.53,15.53,0,0,1,10.674,4.1c2.669,2.573,3.908,6.243,3.765,10.913s-1.62,8.1-4.432,10.2a12.294,12.294,0,0,1-2.764,1.525,14.772,14.772,0,0,0,6.29-2.526c2.812-2.1,4.289-5.528,4.432-10.2S181.181,184.3,178.513,181.677Z" transform="translate(-151.93 -169.716)" fill="#cacaca"/>
            <g id="Group_5377" data-name="Group 5377" transform="translate(0 30.45)">
              <path id="Path_11029" data-name="Path 11029" d="M147.952,250.542c2.954,2.192,6.719,3.05,11.151,2.526s7.91-2.192,10.341-4.956a12.438,12.438,0,0,0,3.05-8.816,2.1,2.1,0,0,0-2.287-2l-2.621.286a2.049,2.049,0,0,0-1.858,2.049,6.672,6.672,0,0,1-1.573,4.575,8.754,8.754,0,0,1-5.718,2.669,8.081,8.081,0,0,1-6.147-1.382,7.666,7.666,0,0,1-2.764-5.528q-.572-5.147,2.144-7.148c1.811-1.334,4.146-2.049,7.529-2.573L156.767,225h-.191c-4.956.715-8.625,2.24-10.96,4.575s-3.479,6.1-2.954,10.722S144.949,248.35,147.952,250.542Z" transform="translate(-142.527 -225)" fill="#fff"/>
              <path id="Path_11030" data-name="Path 11030" d="M147.941,251.8c2.954,2.192,6.719,3.05,11.151,2.526a17.488,17.488,0,0,0,7.1-2.287,20.061,20.061,0,0,1-3.765.762c-4.432.524-8.149-.334-11.151-2.526s-4.765-5.623-5.29-10.245.477-8.244,2.954-10.722a12.292,12.292,0,0,1,2.526-1.906,14.773,14.773,0,0,0-5.861,3.431c-2.478,2.478-3.479,6.1-2.954,10.722S144.939,249.606,147.941,251.8Z" transform="translate(-142.516 -226.256)" fill="#cacaca"/>
            </g>
          </g>
          <g id="Group_5379" data-name="Group 5379" transform="translate(0 463.141)" opacity="0.11">
            <path id="Path_11031" data-name="Path 11031" d="M20.253,1016H372.409c11.151,0,20.253,7.148,20.253,15.821h0c0,6.052-4.384,11.294-10.77,13.963h31.022c11.151,0,20.253,7.147,20.253,15.82h0c0,8.721-9.1,15.821-20.253,15.821H402.1a13.982,13.982,0,0,1,4.861,10.245v6.338c0,8.72-9.1,15.821-20.253,15.821H39.79c-11.151,0-20.253-7.148-20.253-15.821v-6.338c0-8.72,9.1-15.82,20.253-15.82l23.588.333a9.813,9.813,0,0,1-6.671-3.336c-3.431-3.907-3.574-9.864-1.906-14.772,1.1-3.193,2.812-5.718,7.148-6.671l-41.7.19C9.1,1047.594,0,1040.446,0,1031.773H0C0,1023.148,9.1,1016,20.253,1016Z" transform="translate(0 -1016)" fill="#606060"/>
          </g>
          <g id="Group_5387" data-name="Group 5387" transform="translate(20.246)">
            <g id="Group_5385" data-name="Group 5385" transform="translate(118.804 100.041)">
              <g id="Group_5383" data-name="Group 5383" transform="translate(3.167)">
                <g id="Group_5382" data-name="Group 5382">
                  <path id="Path_11032" data-name="Path 11032" d="M355.126,1071.4l-11.675,7.481-4.051,5.957a42.565,42.565,0,0,0,6.481,2.669c2.335.572,20.872-1.382,20.872-1.382l.524-10.865Z" transform="translate(-319.882 -681.901)" fill="#273140"/>
                  <path id="Path_11033" data-name="Path 11033" d="M485.363,1085.721,479.6,1092.2s-4.718,8.768-2.335,8.625,15.154.572,16.011-.906,7.672-6.576,8.578-7.577,0-9.245,0-9.245Z" transform="translate(-391.697 -688.025)" fill="#273140"/>
                  <path id="Path_11034" data-name="Path 11034" d="M425.7,701.617l14.534,88.3,18.489,84.06,16.488-.953-3.145-88.73S483.98,702.713,483.98,678.6Z" transform="translate(-365.057 -476.282)" fill="#2e4661"/>
                  <path id="Path_11035" data-name="Path 11035" d="M349.2,695.012l6.671,162.974,16.964.762,9.054-82.773,13.152-73.052L359.922,657.7Z" transform="translate(-325.012 -465.342)" fill="#2e4661"/>
                  <g id="Group_5380" data-name="Group 5380" transform="translate(0 65.008)">
                    <path id="Path_11036" data-name="Path 11036" d="M530,441.4Z" transform="translate(-419.655 -417.123)" fill="none"/>
                    <path id="Path_11037" data-name="Path 11037" d="M331.541,469.343c8.911-43.317-2.383-64.236,17.107-76.293,0,0,31.737-8.721,51.99,5.814l.858.619,7.291,15.249,5.575,68.525s15.583,89.969,7.339,90.732c-9.388.81-52.466-19.252-60.662-18.775s-33.214,4.956-56.8-3.1C283.983,545.254,322.63,512.659,331.541,469.343Z" transform="translate(-298.442 -390.455)" fill="#677b91"/>
                  </g>
                  <path id="Path_11038" data-name="Path 11038" d="M427.768,393.1l6.147.238.667,6.242-22.73,63.426-5.051-27.5,5.528-39.933Z" transform="translate(-355.164 -326.832)" fill="#fff"/>
                  <g id="Group_5381" data-name="Group 5381" transform="translate(37.574)">
                    <path id="Path_11039" data-name="Path 11039" d="M419.533,349.951l12.676.524a63.482,63.482,0,0,0,.715-10.1c3.669-.715,7.91-2,9.054-5.575a10.483,10.483,0,0,0,.286-3.479c-.143-4.861,1.191-9.769-.476-14.534-.572-1.573-.1-3.383-.81-4.908-1.239-2.669-4.1-4.193-6.91-5.1-7.148-2.287-15.344-1.858-21.73,2.144a11.076,11.076,0,0,0-4.193,4.194c-1.43,2.716-1.1,6-.762,9.054l1,8.482c.381,3.24,1.048,6.957,3.908,8.578,1.525.858,3.431.953,4.765,2.049C419.485,343.28,418.58,347.044,419.533,349.951Z" transform="translate(-392.89 -280.919)" fill="#e7caad"/>
                    <path id="Path_11040" data-name="Path 11040" d="M385.73,260.071a12.434,12.434,0,0,0,2.907-.524c3.145-1.048,5.528-3.574,8.864-4.527a30.041,30.041,0,0,1,21.206,2.335c6.242,3.24,14.3,4.813,19.49,8.768a16.869,16.869,0,0,1,5,6.481,25.435,25.435,0,0,1-3.669,26.638,36.4,36.4,0,0,1-4.622,4.384c-3.383,2.811-7.482,6.242-11.723,6.862.429-3.669,5.337-14.629,2.954-18.013-3.145-4.479-10.007-4.956-15.011-4.908-5.909.048-10.579-2.24-16.44-2.43-3-.1-6.433.191-8.53-1.906s-7.434-9.959-8.482-13.152a7.448,7.448,0,0,1,2.335-8.053C382.2,260.023,383.776,260.261,385.73,260.071Z" transform="translate(-377.291 -254.036)" fill="#3a3029"/>
                  </g>
                </g>
                <path id="Path_11041" data-name="Path 11041" d="M307.626,428.735,346.082,393.9l9.245,7.815-31.832,53.133L309.1,456.23s-4.146-14.82-5-16.393Z" transform="translate(-301.404 -327.251)" fill="#6d8299"/>
              </g>
              <g id="Group_5384" data-name="Group 5384" transform="translate(0 144.036)">
                <path id="Path_11042" data-name="Path 11042" d="M594.742,1042.692a27.395,27.395,0,1,0,28.5,46.8,28.262,28.262,0,0,0,6.624-5.528,27.424,27.424,0,0,0-35.121-41.268Z" transform="translate(-443.441 -808.761)" fill="#fff"/>
                <path id="Path_11043" data-name="Path 11043" d="M623.9,1039.4a26.511,26.511,0,0,0-20.729,3.288,28.85,28.85,0,0,0-5.575,4.385,27.467,27.467,0,0,1,29.735,43.841l-1.1,1.144a29.315,29.315,0,0,0,5.385-2.573,28.25,28.25,0,0,0,6.624-5.528A27.569,27.569,0,0,0,623.9,1039.4Z" transform="translate(-451.875 -808.761)" fill="#e1e1e1"/>
                <path id="Path_11044" data-name="Path 11044" d="M409.072,557.917c-22.3-4.527-45.509.429-69,14.725s-38.647,32.69-45.128,54.706c-5.623,19.157-3.717,38.456,5.766,57.47a12.819,12.819,0,0,0,18.108,5.242l13.962-8.482a12.819,12.819,0,0,0,4.956-16.345c-4.908-10.531-5.909-20.253-3.145-29.783,3.336-11.532,11.866-21.539,25.351-29.736s26.209-10.912,38.075-8.244,21.873,10.722,29.879,23.874c11.008,18.108,13.248,33.5,6.672,45.7s-22.063,26.209-44.889,39.79l-6.052,3.669a12.819,12.819,0,0,0-4.289,17.584l32.023,52.656a12.818,12.818,0,0,0,17.584,4.289l14.153-8.625a12.819,12.819,0,0,0,4.289-17.584l-20.729-34.072a.905.905,0,0,1,.286-1.239c26.018-16.869,42.7-35.073,49.7-54.182,7.434-20.348,3.622-43.126-11.341-67.667S431.517,562.444,409.072,557.917Z" transform="translate(-291.796 -556.295)" fill="#fff"/>
                <path id="Path_11045" data-name="Path 11045" d="M424.831,557.917c-22.3-4.527-45.509.429-69,14.725-14.534,8.816-25.876,19.252-33.929,31.117a124.049,124.049,0,0,1,19.014-14.105c23.445-14.3,46.652-19.2,69-14.725s41.363,19.252,56.231,43.7,18.775,47.367,11.341,67.667a75.965,75.965,0,0,1-9.2,17.346c11.723-11.008,19.776-22.54,24.112-34.406,7.434-20.348,3.622-43.126-11.341-67.667S447.276,562.444,424.831,557.917Z" transform="translate(-307.554 -556.295)" fill="#e1e1e1"/>
              </g>
              <path id="Path_11046" data-name="Path 11046" d="M492.576,400l18.251,5.623,43.6,74.339-3,14.344-56.469,28.258L487,507.219l35.692-27.258-21.777-29.735-8.434-47.605Z" transform="translate(-393.979 -330.444)" fill="#6d8299"/>
              <path id="Path_11047" data-name="Path 11047" d="M393.8,384.259l9.245-9.959,8.911,2.478,2.478,8.959-7.91,1.477-7.434,1.477Z" transform="translate(-345.192 -316.991)" fill="#d6bba0"/>
              <path id="Path_11048" data-name="Path 11048" d="M472,628.2l-8.911,1.811,1.43,5.242-7.72,9.006,10.579,3.86L477.72,639.3Z" transform="translate(-378.17 -449.899)" fill="#e7caad"/>
            </g>
            <g id="Group_5386" data-name="Group 5386" transform="translate(0)">
              <path id="Path_11049" data-name="Path 11049" d="M204.7,98.758A27.543,27.543,0,0,0,170.25,72.025a33.4,33.4,0,0,0-61.949-11.1A18.966,18.966,0,0,0,75.516,73.883V74.5a27.543,27.543,0,0,0-13.867,53.229,33.4,33.4,0,0,0,58.423,28.306,27.543,27.543,0,0,0,49.8-6.052,18.966,18.966,0,0,0,23.445-29.068A27.5,27.5,0,0,0,204.7,98.758Zm-41.363,23.684h-.048l-.1-.143Z" transform="translate(-42.485 -44.1)" fill="#c5cccc"/>
              <path id="Path_11050" data-name="Path 11050" d="M262.037,328.944A11.627,11.627,0,0,0,279,341.048a9.1,9.1,0,0,0,17.87-3.241,8.339,8.339,0,1,0-.62-16.536,11.627,11.627,0,0,0-22.206-2.1A11.627,11.627,0,0,0,262.037,328.944Z" transform="translate(-157.336 -184.269)" fill="#c5cccc"/>
            </g>
          </g>
          <g id="Group_5390" data-name="Group 5390" transform="translate(85.528 26.877)">
            <g id="Group_5388" data-name="Group 5388" transform="translate(12.304)">
              <path id="Path_11051" data-name="Path 11051" d="M205.848,123.421V103.359a3.336,3.336,0,0,1,.572-2,1.859,1.859,0,0,1,1.43-.858h2.669l.62.1a2.737,2.737,0,0,1,1.477,2.621l.1,8.673a.191.191,0,0,0,.048.143v36.6h-.048v20.062a3.335,3.335,0,0,1-.572,2,1.858,1.858,0,0,1-1.43.858H208.04l-.62-.1a2.737,2.737,0,0,1-1.477-2.621l-.1-8.673a.191.191,0,0,0-.048-.143v-36.6Z" transform="translate(-205.562 -100.5)" fill="#fff"/>
              <path id="Path_11052" data-name="Path 11052" d="M205.348,123.421V103.359a3.336,3.336,0,0,1,.572-2,1.859,1.859,0,0,1,1.43-.858h1.1a1.859,1.859,0,0,0-1.43.858,3.336,3.336,0,0,0-.572,2v20.062H206.4v36.6a.19.19,0,0,1,.048.143l.1,8.673a2.737,2.737,0,0,0,1.477,2.621l.381.1h-.858l-.62-.1a2.737,2.737,0,0,1-1.477-2.621l-.1-8.673a.191.191,0,0,0-.048-.143v-36.6Z" transform="translate(-205.3 -100.5)" fill="#cacaca"/>
            </g>
            <path id="Path_11053" data-name="Path 11053" d="M183.735,123.315c2.907-2.859,6.862-4.384,11.77-4.527s8.959,1.144,12.1,3.812a13.724,13.724,0,0,1,4.718,9.149,2.287,2.287,0,0,1-2.192,2.573l-2.907.1a2.287,2.287,0,0,1-2.335-1.954,7.339,7.339,0,0,0-2.43-4.765,9.714,9.714,0,0,0-6.671-2,8.754,8.754,0,0,0-6.481,2.478,8.632,8.632,0,0,0-2.144,6.481c.1,3.765,1.287,6.29,3.431,7.482s3.336,1,7.053,1.62l-.334,6.147h-.1c-5.528,0-9.817-1.1-12.723-3.288s-4.765-6.1-4.908-11.246S180.828,126.174,183.735,123.315Z" transform="translate(-179.532 -110.068)" fill="#fff"/>
            <path id="Path_11054" data-name="Path 11054" d="M183.683,123.3c2.907-2.859,6.862-4.384,11.77-4.527a19.348,19.348,0,0,1,8.1,1.334,22.159,22.159,0,0,0-4.241-.238c-4.908.143-8.863,1.668-11.77,4.527s-4.336,6.91-4.146,12.009,1.811,8.911,4.908,11.246a13.58,13.58,0,0,0,3.05,1.716,16.3,16.3,0,0,1-6.957-2.812c-3.1-2.335-4.765-6.1-4.908-11.246S180.776,126.159,183.683,123.3Z" transform="translate(-179.48 -110.052)" fill="#cacaca"/>
            <g id="Group_5389" data-name="Group 5389" transform="translate(0.467 33.595)">
              <path id="Path_11055" data-name="Path 11055" d="M207.594,199.258c-3.288,2.383-7.434,3.336-12.295,2.764s-8.721-2.383-11.437-5.48a13.724,13.724,0,0,1-3.383-9.769A2.287,2.287,0,0,1,183,184.581l2.907.334a2.287,2.287,0,0,1,2.049,2.287,7.338,7.338,0,0,0,1.716,5.051,9.347,9.347,0,0,0,6.338,2.907c2.812.286,5.051-.191,6.767-1.525a8.673,8.673,0,0,0,3.05-6.1c.429-3.765-.381-6.433-2.335-7.91s-4.575-2.287-8.292-2.859L197.872,171h.191c5.48.762,9.531,2.478,12.1,5.051s3.812,6.719,3.24,11.818S210.882,196.828,207.594,199.258Z" transform="translate(-180.46 -171)" fill="#fff"/>
              <path id="Path_11056" data-name="Path 11056" d="M215.31,200.724c-3.288,2.383-7.434,3.336-12.294,2.764a19.348,19.348,0,0,1-7.815-2.526,22.165,22.165,0,0,0,4.146.858c4.861.572,9.006-.381,12.294-2.764s5.242-6.243,5.861-11.294-.524-9.1-3.24-11.818a13.582,13.582,0,0,0-2.812-2.144,16.3,16.3,0,0,1,6.481,3.765c2.716,2.764,3.812,6.719,3.24,11.818S218.6,198.294,215.31,200.724Z" transform="translate(-188.176 -172.466)" fill="#cacaca"/>
            </g>
          </g>
        </g>
      </g>
    </g>
  </g>
</svg>
