{
  "data": {
    "hero": {
      "heading": "Uber Eats and ASU",
      "subHeading": "Delivering on opportunity",
      "media": {
        "bgImage": "hero-bg-eats.png",
        "bgImage-mobile": "hero-bg-eats.png",
        "className": "UberEats"
      }
    },
    "secondaryHeading": "A partnership between Uber Eats and Arizona State University that gives delivery people or a family member 100% tuition coverage to ASU’s top-ranked online programs.",
    "catalogue": {
      "heading": "Uber Eats tuition coverage for delivery people and their families",
      "asuo": "Delivery people or a family member have the opportunity to take classes toward one of the 100+ bachelor’s degrees offered completely online through ASU with full tuition coverage.",
      "cpe": "Delivery people or a family member can also take upskilling courses in entrepreneurship or English language learning online through ASU to build skills that can advance their career."
    },
    "navItems": [
      {
        "name": "I deliver with Uber Eats",
        "link": "/driver"
      },
      {
        "name": "I am a family member of a delivery person",
        "link": "/family"
      },
      {
        "name": "Deliver with Uber Eats",
        "link": "https://www.uber.com/us/en/drive/delivery/"
      }
    ],
    "degreeInfo": [
      {
        "heading": "I deliver with Uber Eats",
        "body": "Learn more about how you can qualify for full tuition coverage today."
      },
      {
        "heading": "I am a family member",
        "body": "Are you a spouse, domestic partner, child, sibling, parent, legal guardian or dependent of a delivery person? You might qualify for this opportunity."
      }
    ],
    "disclaimer": "* Delivery people must have completed 1,000 lifetime trips and have Gold, Platinum or Diamond status in a U.S. city where Uber Eats Pro is in operation to be eligible for 100% tuition coverage. Eligible family members are a spouse or domestic partner, child, sibling, parent or legal guardian, or dependent. Students are required to pay applicable income taxes on the tuition coverage, as well as the costs of books and computer or technology services. Tuition coverage is provided after scholarships or other grants and is only valid for certain online classes, up to a maximum 135 credits for ASU Online (i.e. degree programs) and $3,000 for Continuing Professional Education, ELL and Earned Admission. Maximums do not reset if a delivery person transfers coverage to an eligible family member or if a student switches between programs. Enrollment in ASU Online depends on enrollee gaining admission and admission decisions are made at ASU’s sole discretion. Delivery people remain eligible for this reward for as long as they maintain Uber Eats Pro Gold, Platinum or Diamond status, and for an additional 3 month grace period if their Uber Eats Pro status falls to Partner level. Additional limitations apply. For complete terms and conditions, visit <a href='http://uber.com/legal/rewards-program/ubereats-pro/us-en/'>https://www.uber.com/legal/rewards-program/ubereats-pro/us-en/</a>"
  }
}
