[
    {
        "code": "UGLA-LAASBBA",
        "title": "Anthropology (BA)",
        "category": "Undergraduate",
        "interestareas": [
            "Humanities & Social Sciences"
        ],
        "progcode": "UGLA",
        "plancode": "LAASBBA",
        "subplancode": "",
        "concentration": "",
        "crmdestination": "laurus",
        "shortdesc": "Anthropology is the study of humans, past and present. To understand what makes humans unique, and the importance of our differences, anthropology draws on insights from diverse fields, including social and biological sciences and the humanities.",
        "degreeimage": "https://cms.asuonline.asu.edu/sites/default/files/program-images/fotolia_131228897_subscription_monthly_m_1.jpg",
        "detailpage": "/online-degree-programs/undergraduate/bachelor-arts-anthropology"
    },
    {
        "code": "UGLS-LSALSBAS",
        "title": "Applied Leadership (BAS)",
        "category": "Undergraduate",
        "interestareas": [
            "Business"
        ],
        "progcode": "UGLS",
        "plancode": "LSALSBAS",
        "subplancode": "",
        "concentration": "",
        "crmdestination": "laurus",
        "shortdesc": "The online Bachelor of Applied Science in Applied Leadership degree shares coursework with the BA in organizational leadership but focuses on applied leadership skills rather than theoretical aspects of leadership. It uses transdisciplinary methods that prepare students to become leaders in a variety of organizations while developing students’ skills and knowledge.",
        "degreeimage": "https://cms.asuonline.asu.edu/sites/default/files/program-images/Fotolia_80937574_Subscription_Monthly_M_cropped_0.jpg",
        "detailpage": "/online-degree-programs/undergraduate/applied-leadership-bas"
    },
    {
        "code": "UGHI-HIARTDPBFA",
        "title": "Art (Digital Photography) (BFA)",
        "category": "Undergraduate",
        "interestareas": [
            "Art & Design"
        ],
        "progcode": "UGHI",
        "plancode": "HIARTDPBFA",
        "subplancode": "",
        "concentration": "",
        "crmdestination": "laurus",
        "shortdesc": "The Bachelor of Fine Arts in Art in Digital Photography at ASU is the first online program from a research 1 university or fine art college in the nation to offer a studio practice-based degree. Working with a faculty of professional artists, students have the opportunity to master technical, aesthetic and conceptual aspects of digital photography.",
        "degreeimage": "https://cms.asuonline.asu.edu/sites/default/files/program-images/fotolia_130277465_subscription_monthly_m_cropped.jpg",
        "detailpage": "/online-degree-programs/undergraduate/art-digital-photography-bfa"
    },
    {
        "code": "UGHI-FAARTHBA",
        "title": "Art History (BA)",
        "category": "Undergraduate",
        "interestareas": [
            "Art & Design",
            "History"
        ],
        "progcode": "UGHI",
        "plancode": "FAARTHBA",
        "subplancode": "",
        "concentration": "",
        "crmdestination": "laurus",
        "shortdesc": "The Bachelor of Arts in art history through ASU’s Herberger Institute for Design and the Arts is one of few online art history programs offered nationwide. The ASU Online Art History BA is a comprehensive degree designed to engage you with visuality in a variety of ways. The program provides a high-quality art history education and will prepare you for a life-long career.",
        "degreeimage": "https://cms.asuonline.asu.edu/sites/default/files/program-images/Fotolia_177051065_Subscription_Monthly_M_cropped.png",
        "detailpage": "/online-degree-programs/undergraduate/bachelor-arts-art-history"
    },
    {
        "code": "UGLA-LABCHBS",
        "title": "Biochemistry (BS)",
        "category": "Undergraduate",
        "interestareas": [
            "Health & Nutrition",
            "Natural Sciences"
        ],
        "progcode": "UGLA",
        "plancode": "LABCHBS",
        "subplancode": "",
        "concentration": "",
        "crmdestination": "laurus",
        "shortdesc": "The online Bachelor of Science in Biochemistry provides students with a course of study in the chemical processes of living organisms. This online program is appropriate preparation for further study of biochemistry or related sciences in graduate school and for medical, dental or pharmacy school.",
        "degreeimage": "https://cms.asuonline.asu.edu/sites/default/files/program-images/fotolia_93974811_subscription_monthly_m_cropped.jpg",
        "detailpage": "/online-degree-programs/undergraduate/bachelor-science-biochemistry"
    },
    {
        "code": "UGLA-LABSCBS",
        "title": "Biological Sciences (BS)",
        "category": "Undergraduate",
        "interestareas": [
            "Health & Nutrition",
            "Natural Sciences"
        ],
        "progcode": "UGLA",
        "plancode": "LABSCBS",
        "subplancode": "",
        "concentration": "",
        "crmdestination": "laurus",
        "shortdesc": "The online Bachelor of Science in Biological Sciences degree enables students to delve into the basic organization and processes of life (microbes, plants and animals) at scales ranging from molecules to ecosystems and in time from picoseconds to millennia.",
        "degreeimage": "https://cms.asuonline.asu.edu/sites/default/files/program-images/BiologicalSciences_DegreeImage.jpg",
        "detailpage": "/online-degree-programs/undergraduate/biological-sciences-bs"
    },
    {
        "code": "UGBA-BABUSBABA",
        "title": "Business - Business Administration (BA)",
        "category": "Undergraduate",
        "interestareas": [
            "Business"
        ],
        "progcode": "UGBA",
        "plancode": "BABUSBABA",
        "subplancode": "",
        "concentration": "",
        "crmdestination": "laurus",
        "shortdesc": "The Bachelor of Arts in business with a concentration in business administration provides a breadth of knowledge and skills needed for managing business operations. These skills include forecasting demand, planning inventory, purchasing services, conducting skillful negotiations, building strategies for the future and managing people, finances and risk.",
        "degreeimage": "https://cms.asuonline.asu.edu/sites/default/files/program-images/Business-Administration_cropped.jpg",
        "detailpage": "/online-degree-programs/undergraduate/bachelor-arts-business-concentration-business"
    },
    {
        "code": "UGBA-BABUSCBA",
        "title": "Business - Communication (BA)",
        "category": "Undergraduate",
        "interestareas": [
            "Business",
            "Communication"
        ],
        "progcode": "UGBA",
        "plancode": "BABUSCBA",
        "subplancode": "",
        "concentration": "",
        "crmdestination": "laurus",
        "shortdesc": "ASU's Bachelor of Arts in business with a concentration in communication will prepare you to understand and shape message-related behaviors for the purpose of improving communicative interactions in the workplace.",
        "degreeimage": "https://cms.asuonline.asu.edu/sites/default/files/program-images/20170426-Hawaiian-Sustainability-7_cropped.jpg",
        "detailpage": "/online-degree-programs/undergraduate/bachelor-arts-business-concentration-communication"
    },
    {
        "code": "UGBA-BABUSCABA",
        "title": "Business - Corporate Accounting (BA)",
        "category": "Undergraduate",
        "interestareas": [
            "Business"
        ],
        "progcode": "UGBA",
        "plancode": "BABUSCABA",
        "subplancode": "",
        "concentration": "",
        "crmdestination": "laurus",
        "shortdesc": "The online Bachelor of Arts in Business with a concentration in Corporate Accounting is structured to prepare students for careers in management accounting. Career opportunities in this field are generally substantive and in high demand.",
        "degreeimage": "https://cms.asuonline.asu.edu/sites/default/files/program-images/BusinessCorporateAccountingBA_OnlineDegree.jpg",
        "detailpage": "/online-degree-programs/undergraduate/bachelor-arts-business-corporate-accounting"
    },
    {
        "code": "UGBA-BABUSFIMBA",
        "title": "Business - Food Industry Management (BA)",
        "category": "Undergraduate",
        "interestareas": [
            "Business"
        ],
        "progcode": "UGBA",
        "plancode": "BABUSFIMBA",
        "subplancode": "",
        "concentration": "",
        "crmdestination": "laurus",
        "shortdesc": "ASU's online Bachelor of Arts in business with a concentration in food industry management will prepare you for business careers in the processing, marketing and distribution of food beyond the farm to retail stores, restaurants and institutions.",
        "degreeimage": "https://cms.asuonline.asu.edu/sites/default/files/program-images/Fotolia_172629299_Subscription_Monthly_M_cropped.jpg",
        "detailpage": "/online-degree-programs/undergraduate/bachelor-arts-food-industry-management"
    },
    {
        "code": "UGBA-BABUSGBA",
        "title": "Business - Global Leadership (BA)",
        "category": "Undergraduate",
        "interestareas": [
            "Business"
        ],
        "progcode": "UGBA",
        "plancode": "BABUSGBA",
        "subplancode": "",
        "concentration": "",
        "crmdestination": "laurus",
        "shortdesc": "Offered through ASU’s W. P. Carey School of Business, the online BA in business with a concentration in global leadership will prepare you for related careers by developing strong global business skills and focusing on global studies courses from regions around the world.",
        "degreeimage": "https://cms.asuonline.asu.edu/sites/default/files/program-images/Fotolia_148426764_Subscription_Monthly_M_cropped.jpg",
        "detailpage": "/online-degree-programs/undergraduate/bachelor-arts-business-global-leadership"
    },
    {
        "code": "UGBA-BABUSGLBA",
        "title": "Business - Global Logistics Management (BA)",
        "category": "Undergraduate",
        "interestareas": [
            "Business"
        ],
        "progcode": "UGBA",
        "plancode": "BABUSGLBA",
        "subplancode": "",
        "concentration": "",
        "crmdestination": "laurus",
        "shortdesc": "Offered through the W. P. Carey School of Business, ASU’s BA in business with a concentration in global logistics management provides the needed skills to develop strategic business processes for logistics management and an understanding of their relationship to the global distribution of goods and services.",
        "degreeimage": "https://cms.asuonline.asu.edu/sites/default/files/program-images/Fotolia_61161215_Subscription_Monthly_M_cropped.jpg",
        "detailpage": "/online-degree-programs/undergraduate/bachelor-arts-business-global-logistics-management"
    },
    {
        "code": "UGBA-BABUSRBA",
        "title": "Business - Retail Management (BA)",
        "category": "Undergraduate",
        "interestareas": [
            "Business"
        ],
        "progcode": "UGBA",
        "plancode": "BABUSRBA",
        "subplancode": "",
        "concentration": "",
        "crmdestination": "laurus",
        "shortdesc": "ASU’s online Bachelor of Arts in business with a concentration in retail management focuses on the knowledge and skills necessary for leadership roles within the retail industry. Offered through The W. P. Carey School of Business, this degree provides the full business core plus a concentration with retail-specific coursework.",
        "degreeimage": "https://cms.asuonline.asu.edu/sites/default/files/program-images/Fotolia_163414059_Subscription_Monthly_M_cropped_0.jpg",
        "detailpage": "/online-degree-programs/undergraduate/bachelor-arts-business-retail-management"
    },
    {
        "code": "UGBA-BABUSSBA",
        "title": "Business - Sustainability (BA)",
        "category": "Undergraduate",
        "interestareas": [
            "Business",
            "Sustainability"
        ],
        "progcode": "UGBA",
        "plancode": "BABUSSBA",
        "subplancode": "",
        "concentration": "",
        "crmdestination": "laurus",
        "shortdesc": "ASU’s online Bachelor of Arts in business with a concentration in sustainability will provide you with the skills to help create an improved social and environmental quality of life for future generations.",
        "degreeimage": "https://cms.asuonline.asu.edu/sites/default/files/program-images/business---sustainability-BA_cropped_0.jpg",
        "detailpage": "/online-degree-programs/undergraduate/bachelor-arts-business-sustainability"
    },
    {
        "code": "UGBA-BABUSTBA",
        "title": "Business - Tourism (BA)",
        "category": "Undergraduate",
        "interestareas": [
            "Business"
        ],
        "progcode": "UGBA",
        "plancode": "BABUSTBA",
        "subplancode": "",
        "concentration": "",
        "crmdestination": "laurus",
        "shortdesc": "The Bachelor of Arts in business with a concentration in tourism is an innovative, interdisciplinary program intended to prepare students for positions in a variety of professions in which business and tourism play an important role in ensuring success.",
        "degreeimage": "https://cms.asuonline.asu.edu/sites/default/files/program-images/Business-Tourism-cropped.jpg",
        "detailpage": "/online-degree-programs/undergraduate/bachelor-arts-business-tourism"
    },
    {
        "code": "UGBA-BABDABS",
        "title": "Business Data Analytics (BS)",
        "category": "Undergraduate",
        "interestareas": [
            "Business",
            "Technology"
        ],
        "progcode": "UGBA",
        "plancode": "BABDABS",
        "subplancode": "",
        "concentration": "",
        "crmdestination": "laurus",
        "shortdesc": "The Bachelor of Science in business data analytics prepares business students with the requisite knowledge, skills and experience to create and manage big data initiatives as well as associated business processes to facilitate large-scale business data analytics in organizations.",
        "degreeimage": "https://cms.asuonline.asu.edu/sites/default/files/program-images/business-data-analytics-cropped.jpg",
        "detailpage": "/online-degree-programs/undergraduate/bachelor-science-business-data-analytics"
    },
    {
        "code": "UGLA-LACOMBS",
        "title": "Communication (BS)",
        "category": "Undergraduate",
        "interestareas": [
            "Communication"
        ],
        "progcode": "UGLA",
        "plancode": "LACOMBS",
        "subplancode": "",
        "concentration": "",
        "crmdestination": "laurus",
        "shortdesc": "The Bachelor of Science in communication program will teach you how communication processes create, maintain, and transform identities, workplaces, and communities. ",
        "degreeimage": "https://cms.asuonline.asu.edu/sites/default/files/program-images/Fotolia_170544055_Subscription_Monthly_M_cropped_0.jpg",
        "detailpage": "/online-degree-programs/undergraduate/bachelor-science-communication"
    },
    {
        "code": "UGPP-PPCASPBA",
        "title": "Community Advocacy and Social Policy (BA)",
        "category": "Undergraduate",
        "interestareas": [
            "Humanities & Social Sciences",
            "Public Service & Public Policy"
        ],
        "progcode": "UGPP",
        "plancode": "PPCASPBA",
        "subplancode": "",
        "concentration": "",
        "crmdestination": "laurus",
        "shortdesc": "The Bachelor of Arts in Community Advocacy and Social Policy through the School of Social Work is designed to offer you the opportunity to explore issues of diversity, oppression, and privilege and to examine advocacy and intervention strategies to engage in social change.",
        "degreeimage": "https://cms.asuonline.asu.edu/sites/default/files/program-images/community_advocacy_and_social_policy_BA_cropped_0.jpg",
        "detailpage": "/online-degree-programs/undergraduate/bachelor-arts-community-advocacy-and-social-policy"
    },
    {
        "code": "UGNU-NUCHLTBS",
        "title": "Community Health (BS)",
        "category": "Undergraduate",
        "interestareas": [
            "Health & Nutrition",
            "Humanities & Social Sciences"
        ],
        "progcode": "UGNU",
        "plancode": "NUCHLTBS",
        "subplancode": "",
        "concentration": "",
        "crmdestination": "laurus",
        "shortdesc": "The online Bachelor of Science in Community Health at ASU is designed for students who want to create healthy, sustainable communities with an emphasis on working with specific populations.",
        "degreeimage": "https://cms.asuonline.asu.edu/sites/default/files/program-images/ENGAGE-Alumni-November-Project-2_photoshelter_cropped.jpg",
        "detailpage": "/online-degree-programs/undergraduate/bachelor-science-community-health"
    },
    {
        "code": "UGBA-BACISBS",
        "title": "Computer Information Systems (BS)",
        "category": "Undergraduate",
        "interestareas": [
            "Business",
            "Technology"
        ],
        "progcode": "UGBA",
        "plancode": "BACISBS",
        "subplancode": "",
        "concentration": "",
        "crmdestination": "laurus",
        "shortdesc": "You will find your future with Computer Information Systems is limitless. The online W. P. Carey degree in computer information systems delivers the tools you need to meet rising demand for experts in systems analysis, business applications programming, web and mobile development, business database design, and decision support across public, private, nonprofit, and government entities worldwide.",
        "degreeimage": "https://cms.asuonline.asu.edu/sites/default/files/program-images/fotolia_182272715_subscription_monthly_m_cropped.jpg",
        "detailpage": "/online-degree-programs/undergraduate/computer-information-systems-bs"
    },
    {
        "code": "UGPP-PPCRIMJBS",
        "title": "Criminology and Criminal Justice (BS)",
        "category": "Undergraduate",
        "interestareas": [
            "Criminal Justice & Law"
        ],
        "progcode": "UGPP",
        "plancode": "PPCRIMJBS",
        "subplancode": "",
        "concentration": "",
        "crmdestination": "laurus",
        "shortdesc": "The Bachelor of Science in criminology and criminal justice offers you the chance to explore the impact of crime and effective approaches to reduce it at the local, state, and federal level. ",
        "degreeimage": "https://cms.asuonline.asu.edu/sites/default/files/program-images/Fotolia_137832134_Subscription_Monthly_M_cropped.jpg",
        "detailpage": "/online-degree-programs/undergraduate/bachelor-science-criminology-and-criminal-justice"
    },
    {
        "code": "UGCS-CSDIGABS",
        "title": "Digital Audiences (BS)",
        "category": "Undergraduate",
        "interestareas": [
            "Business",
            "Communication",
            "Liberal Studies"
        ],
        "progcode": "UGCS",
        "plancode": "CSDIGABS",
        "subplancode": "",
        "concentration": "",
        "crmdestination": "laurus",
        "shortdesc": "The online Bachelor of Science in Digital Audiences gives students the skills they need to use digital and social media to deepen impact in any industry, including strategy development, digital analytics, SEO and SEM campaigns, paid and organic social campaigns, audience research and more.",
        "degreeimage": "https://cms.asuonline.asu.edu/sites/default/files/program-images/fotolia_111918081_subscription_monthly_m_cropped.jpg",
        "detailpage": "/online-degree-programs/undergraduate/digital-audiences-bs"
    },
    {
        "code": "UGBA-BAECNBS",
        "title": "Economics (BS) - Business",
        "category": "Undergraduate",
        "interestareas": [
            "Business"
        ],
        "progcode": "UGBA",
        "plancode": "BAECNBS",
        "subplancode": "",
        "concentration": "",
        "crmdestination": "laurus",
        "shortdesc": "The online Bachelor of Science in Economics pairs a solid business curriculum with rigorous theoretical and empirical tools to study the decisions of individuals, firms and governments.",
        "degreeimage": "https://cms.asuonline.asu.edu/sites/default/files/program-images/fotolia_51787349_subscription_monthly_m_cropped.jpg",
        "detailpage": "/online-degree-programs/undergraduate/economics-bs-wpc"
    },
    {
        "code": "UGLA-LAECNBS",
        "title": "Economics (BS) - Liberal Arts",
        "category": "Undergraduate",
        "interestareas": [
            "Business"
        ],
        "progcode": "UGLA",
        "plancode": "LAECNBS",
        "subplancode": "",
        "concentration": "",
        "crmdestination": "laurus",
        "shortdesc": "The ASU Online Bachelor of Science in Economics provides students with a set of rigorous theoretical and empirical tools to study the decisions of individuals, firms and governments. The economics curriculum can be paired with a customized set of electives to suit individual interest.",
        "degreeimage": "https://cms.asuonline.asu.edu/sites/default/files/program-images/fotolia_163748321_subscription_monthly_m_cropped.jpg",
        "detailpage": "/online-degree-programs/undergraduate/economics-bs-college-liberal-arts-and-sciences"
    },
    {
        "code": "UGTE-EDSLSTBAE",
        "title": "Educational Studies (BAE)",
        "category": "Undergraduate",
        "interestareas": [
            "Education"
        ],
        "progcode": "UGTE",
        "plancode": "EDSLSTBAE",
        "subplancode": "",
        "concentration": "",
        "crmdestination": "laurus",
        "shortdesc": "ASU's online Educational Studies program qualifies graduates for a variety of career paths working to educate individuals in nonprofit or government organizations, private educational or recreational settings, or as entrepreneurs in a variety of learning environments.",
        "degreeimage": "https://cms.asuonline.asu.edu/sites/default/files/program-images/educationalstudies_degree.jpg",
        "detailpage": "/online-degree-programs/undergraduate/bachelor-arts-education-educational-studies"
    },
    {
        "code": "UGES-ESEEEBSE",
        "title": "Electrical Engineering (BSE)",
        "category": "Undergraduate",
        "interestareas": [
            "Engineering"
        ],
        "progcode": "UGES",
        "plancode": "ESEEEBSE",
        "subplancode": "",
        "concentration": "",
        "crmdestination": "laurus",
        "shortdesc": "From nanoscale electronic devices to the U.S. electric power grid, the Electrical Engineering degree program at ASU will prepare you for a career in areas including energy production and distribution, information processing and management, healthcare technology and delivery, global sustainable development, economic growth and security, and communications and data networking.",
        "degreeimage": "https://cms.asuonline.asu.edu/sites/default/files/program-images/electrical-engineering-BSE_cropped_0.jpg",
        "detailpage": "/online-degree-programs/undergraduate/bachelor-science-engineering-electrical-engineering"
    },
    {
        "code": "UGES-ESEEEPBSE",
        "title": "Electrical Engineering - Electric Power and Energy Systems (BSE)",
        "category": "Undergraduate",
        "interestareas": [
            "Engineering"
        ],
        "progcode": "UGES",
        "plancode": "ESEEEPBSE",
        "subplancode": "",
        "concentration": "",
        "crmdestination": "laurus",
        "shortdesc": "The online BSE in Electrical Engineering with a concentration in Electric Power and Energy Systems prepares students for careers in electric power industries, including power generation, transmission and utilization. The degree includes conventional power generation and alternative energy systems.",
        "degreeimage": "https://cms.asuonline.asu.edu/sites/default/files/program-images/Fotolia_157708414_Subscription_Monthly_M_cropped.jpg",
        "detailpage": "/online-degree-programs/undergraduate/electrical-engineering-electric-power-and-energy-systems-bse"
    },
    {
        "code": "UGES-ESEMGBSE",
        "title": "Engineering Management (BSE)",
        "category": "Undergraduate",
        "interestareas": [
            "Engineering"
        ],
        "progcode": "UGES",
        "plancode": "ESEMGBSE",
        "subplancode": "",
        "concentration": "",
        "crmdestination": "laurus",
        "shortdesc": "The Bachelor of Science in Engineering (BSE) program in engineering management is designed to provide you with the skills for effective management and leadership of engineering-driven enterprises.",
        "degreeimage": "https://cms.asuonline.asu.edu/sites/default/files/program-images/Robotics-Lab-9_cropped.jpg",
        "detailpage": "/online-degree-programs/undergraduate/engineering-engineering-management-bse"
    },
    {
        "code": "UGLA-LAENGBA",
        "title": "English (BA)",
        "category": "Undergraduate",
        "interestareas": [
            "Language"
        ],
        "progcode": "UGLA",
        "plancode": "LAENGBA",
        "subplancode": "",
        "concentration": "",
        "crmdestination": "laurus",
        "shortdesc": "The Bachelor of Arts in English gives you the opportunity to pursue your degree completely online. This degree will prepare you to read and write critically in a variety of print and digital genres and develop strong literacy skills. ",
        "degreeimage": "https://cms.asuonline.asu.edu/sites/default/files/program-images/Fotolia_106321762_Subscription_Monthly_M_cropped.jpg",
        "detailpage": "/online-degree-programs/undergraduate/bachelor-arts-english"
    },
    {
        "code": "UGLA-LAFASBS",
        "title": "Family & Human Development (BS)",
        "category": "Undergraduate",
        "interestareas": [
            "Humanities & Social Sciences"
        ],
        "progcode": "UGLA",
        "plancode": "LAFASBS",
        "subplancode": "",
        "concentration": "",
        "crmdestination": "laurus",
        "shortdesc": "The Bachelor of Science in family and human development will equip you with specialized knowledge in human development from infancy through the life span as well as the formation, development, and dissolution of families. ",
        "degreeimage": "https://cms.asuonline.asu.edu/sites/default/files/program-images/Fotolia_140791911_Subscription_Monthly_M_cropped.jpg",
        "detailpage": "/online-degree-programs/undergraduate/bachelor-science-family-and-human-development"
    },
    {
        "code": "UGLA-LAFMSBA",
        "title": "Film & Media Studies (BA)",
        "category": "Undergraduate",
        "interestareas": [
            "Art & Design"
        ],
        "progcode": "UGLA",
        "plancode": "LAFMSBA",
        "subplancode": "",
        "concentration": "",
        "crmdestination": "laurus",
        "shortdesc": "The Bachelor of Arts in film and media studies will provide you with the skills to succeed in the entertainment industry, including film, television and new media, as well as local arts organizations. ",
        "degreeimage": "https://cms.asuonline.asu.edu/sites/default/files/program-images/film-%28film-%26-media-studies%29-BA_cropped.jpg",
        "detailpage": "/online-degree-programs/undergraduate/bachelor-arts-film-and-media-studies"
    },
    {
        "code": "UGLA-LAGISBS",
        "title": "Geographic Information Science (BS)",
        "category": "Undergraduate",
        "interestareas": [
            "Geographical Sciences & Urban Planning",
            "Technology"
        ],
        "progcode": "UGLA",
        "plancode": "LAGISBS",
        "subplancode": "",
        "concentration": "",
        "crmdestination": "laurus",
        "shortdesc": "The online B.S. in Geographic Information Science is a unique STEM-based social science degree. Students will learn practical skills in GIS software, statistics, and computer programming within the context of real world applications. This online program is ideal for students interested in gaining marketable skills that allow them to address complex environmental and societal issues.",
        "degreeimage": "https://cms.asuonline.asu.edu/sites/default/files/program-images/Fotolia_120096251_Subscription_Monthly_M_cropped.jpg",
        "detailpage": "/online-degree-programs/undergraduate/geographic-information-science-bs"
    },
    {
        "code": "UGLA-LAGCUBA",
        "title": "Geography (BA)",
        "category": "Undergraduate",
        "interestareas": [
            "Geographical Sciences & Urban Planning"
        ],
        "progcode": "UGLA",
        "plancode": "LAGCUBA",
        "subplancode": "",
        "concentration": "",
        "crmdestination": "laurus",
        "shortdesc": "The BA in geography at ASU gives you a unique perspective of the modern world, from local to global, through the lens of space and place.",
        "degreeimage": "https://cms.asuonline.asu.edu/sites/default/files/program-images/Fotolia_105893672_Subscription_Monthly_M_cropped.jpg",
        "detailpage": "/online-degree-programs/undergraduate/bachelor-arts-geography"
    },
    {
        "code": "UGLA-LAGCUBS",
        "title": "Geography (BS)",
        "category": "Undergraduate",
        "interestareas": [
            "Geographical Sciences & Urban Planning"
        ],
        "progcode": "UGLA",
        "plancode": "LAGCUBS",
        "subplancode": "",
        "concentration": "",
        "crmdestination": "laurus",
        "shortdesc": "The BS in Geography program at ASU provides you with a distinctive perspective of the modern world through the lens of its natural elements.",
        "degreeimage": "https://cms.asuonline.asu.edu/sites/default/files/program-images/Fotolia_117867421_Subscription_Monthly_M_cropped.jpg",
        "detailpage": "/online-degree-programs/undergraduate/bachelor-science-geography"
    },
    {
        "code": "UGLA-LASSHBA",
        "title": "Global Health (BA)",
        "category": "Undergraduate",
        "interestareas": [
            "Health & Nutrition",
            "Humanities & Social Sciences"
        ],
        "progcode": "UGLA",
        "plancode": "LASSHBA",
        "subplancode": "",
        "concentration": "",
        "crmdestination": "laurus",
        "shortdesc": "The online Bachelor of Arts degree in global health is an interdisciplinary program designed for those seeking a broad understanding of modern health challenges and their potential solutions. ",
        "degreeimage": "https://cms.asuonline.asu.edu/sites/default/files/program-images/global-health-BA_cropped.jpg",
        "detailpage": "/online-degree-programs/undergraduate/bachelor-arts-global-health"
    },
    {
        "code": "UGTB-TBTGMBGM",
        "title": "Global Management (BGM)",
        "category": "Undergraduate",
        "interestareas": [
            "Business"
        ],
        "progcode": "UGTB",
        "plancode": "TBTGMBGM",
        "subplancode": "",
        "concentration": "",
        "crmdestination": "laurus",
        "shortdesc": "Become a global leader with a degree in Global Management from Thunderbird School of Global Management at ASU. This major prepares students to help lead global organizations in this new digital era. With the accelerated pace of technological change globally, the world needs leaders who are agile and able to take advantage of these new tools to build sustainable prosperity worldwide.",
        "degreeimage": "https://cms.asuonline.asu.edu/sites/default/files/program-images/170816-Priyanka-Mathur-3_cropped%20%281%29.jpg",
        "detailpage": "/online-degree-programs/undergraduate/global-management-bgm"
    },
    {
        "code": "UGLA-LASGSBA",
        "title": "Global Studies (BA)",
        "category": "Undergraduate",
        "interestareas": [
            "Humanities & Social Sciences",
            "Public Service & Public Policy"
        ],
        "progcode": "UGLA",
        "plancode": "LASGSBA",
        "subplancode": "",
        "concentration": "",
        "crmdestination": "laurus",
        "shortdesc": "Study global issues at one of the top universities in the nation. The Online Bachelors of Arts (BA) in Global Studies, is designed to link theory with global issues and action through policy.",
        "degreeimage": "https://cms.asuonline.asu.edu/sites/default/files/program-images/GlobalStudies_DegreeImage.jpg",
        "detailpage": "/online-degree-programs/undergraduate/bachelor-arts-global-studies"
    },
    {
        "code": "UGES-TSGITBS",
        "title": "Graphic Information Technology (BS)",
        "category": "Undergraduate",
        "interestareas": [
            "Art & Design",
            "Engineering",
            "Technology"
        ],
        "progcode": "UGES",
        "plancode": "TSGITBS",
        "subplancode": "",
        "concentration": "",
        "crmdestination": "laurus",
        "shortdesc": "The online Bachelor of Science in graphic information technology provides students with a creative, technological, and managerial understanding of graphic information and content creation. The program lives at the intersections of creativity, visual design and technology, preparing students to create visual content for multi-channel distribution – print, web, photo, video, animation.",
        "degreeimage": "https://cms.asuonline.asu.edu/sites/default/files/program-images/graphic-information-technology-BS_cropped.jpg",
        "detailpage": "/online-degree-programs/undergraduate/bachelor-science-graphic-information-technology-concentration"
    },
    {
        "code": "UGNU-NUHCCOBS",
        "title": "Health Care Coordination (BS)",
        "category": "Undergraduate",
        "interestareas": [
            "Health & Nutrition"
        ],
        "progcode": "UGNU",
        "plancode": "NUHCCOBS",
        "subplancode": "",
        "concentration": "",
        "crmdestination": "laurus",
        "shortdesc": "The online Bachelor of Science in Health Care Coordination prepares students to effectively coordinate resources to optimize individual health outcomes. Changes in the health care system place greater emphasis and financial incentives on preventing disease and maintaining healthy lifestyles. This has increased demand for care coordination services to assist individuals and their support teams.",
        "degreeimage": "https://cms.asuonline.asu.edu/sites/default/files/program-images/Fotolia_49222327_Subscription_Monthly_M_cropped.jpg",
        "detailpage": "/online-degree-programs/undergraduate/bachelor-science-health-care-coordination"
    },
    {
        "code": "UGNH-NHHEHPBS",
        "title": "Health Education and Health Promotion (BS)",
        "category": "Undergraduate",
        "interestareas": [
            "Health & Nutrition"
        ],
        "progcode": "UGNH",
        "plancode": "NHHEHPBS",
        "subplancode": "",
        "concentration": "",
        "crmdestination": "laurus",
        "shortdesc": "The B.S. in Health Education and Health Promotion, offered through ASU's School of Nutrition & Health Promotion, is designed for students interested in preparing to become a Certified Health Education Specialist (CHES). The CHES® designation signifies that an individual has met required academic preparation qualifications and has successfully passed the competency-based examination.",
        "degreeimage": "https://cms.asuonline.asu.edu/sites/default/files/program-images/Fotolia_138720778_Subscription_Monthly_M_cropped.jpg",
        "detailpage": "/online-degree-programs/undergraduate/bachelor-science-health-education-and-health-promotion"
    },
    {
        "code": "UGNU-NUHCIBAS",
        "title": "Health Entrepreneurship and Innovation (BAS)",
        "category": "Undergraduate",
        "interestareas": [
            "Health & Nutrition"
        ],
        "progcode": "UGNU",
        "plancode": "NUHCIBAS",
        "subplancode": "",
        "concentration": "",
        "crmdestination": "laurus",
        "shortdesc": "The Bachelor of Applied Science in Health Entrepreneurship and Innovation helps students achieve leadership roles in the innovative health care industry.",
        "degreeimage": "https://cms.asuonline.asu.edu/sites/default/files/program-images/healthinnovationbas_degreepage.jpg",
        "detailpage": "/online-degree-programs/undergraduate/health-innovation-bas"
    },
    {
        "code": "UGNU-NUHCIBS",
        "title": "Health Entrepreneurship and Innovation (BS)",
        "category": "Undergraduate",
        "interestareas": [
            "Health & Nutrition"
        ],
        "progcode": "UGNU",
        "plancode": "NUHCIBS",
        "subplancode": "",
        "concentration": "",
        "crmdestination": "laurus",
        "shortdesc": "The bachelor of science in health entrepreneurship and innovation program prepares students to lead and navigate inevitable changes in health care related to technology, policy, communication and leadership.",
        "degreeimage": "https://cms.asuonline.asu.edu/sites/default/files/program-images/healthinnovationbs_degreeimage.jpg",
        "detailpage": "/online-degree-programs/undergraduate/health-innovation-bs"
    },
    {
        "code": "UGNH-NUHSCBAS",
        "title": "Health Sciences (BAS)",
        "category": "Undergraduate",
        "interestareas": [
            "Health & Nutrition"
        ],
        "progcode": "UGNH",
        "plancode": "NUHSCBAS",
        "subplancode": "",
        "concentration": "",
        "crmdestination": "laurus",
        "shortdesc": "The online BAS in health sciences degree at Arizona State University is ideal for people in health-related fields who have an associate of applied science (AAS) degree and want to earn their four-year degree. ",
        "degreeimage": "https://cms.asuonline.asu.edu/sites/default/files/program-images/Fotolia_176750532_Subscription_Monthly_M_cropped.jpg",
        "detailpage": "/online-degree-programs/undergraduate/bachelor-applied-science-health-sciences"
    },
    {
        "code": "UGNH-NUHSCHLCBS",
        "title": "Healthy Lifestyles Coaching (Health Sciences) (BS)",
        "category": "Undergraduate",
        "interestareas": [
            "Health & Nutrition"
        ],
        "progcode": "UGNH",
        "plancode": "NUHSCHLCBS",
        "subplancode": "",
        "concentration": "",
        "crmdestination": "laurus",
        "shortdesc": "The healthy lifestyles coaching focus combines exercise and wellness, nutrition, and health sciences to provide you with a solid background in preventative health care. ",
        "degreeimage": "https://cms.asuonline.asu.edu/sites/default/files/program-images/Fotolia_78343092_Subscription_Monthly_M_cropped.jpg",
        "detailpage": "/online-degree-programs/undergraduate/bachelor-science-health-sciences-healthy-lifestyles-coaching"
    },
    {
        "code": "UGLA-LAHISBA",
        "title": "History (BA)",
        "category": "Undergraduate",
        "interestareas": [
            "History"
        ],
        "progcode": "UGLA",
        "plancode": "LAHISBA",
        "subplancode": "",
        "concentration": "",
        "crmdestination": "laurus",
        "shortdesc": "The Bachelor of Arts in history is an interdisciplinary degree designed to give you an understanding of the development of human society and the political, social, economic, and cultural dynamics that influence today’s complex world. ",
        "degreeimage": "https://cms.asuonline.asu.edu/sites/default/files/program-images/history-BA_cropped.jpg",
        "detailpage": "/online-degree-programs/undergraduate/bachelor-arts-history"
    },
    {
        "code": "UGES-TSIFTBS",
        "title": "Information Technology (BS)",
        "category": "Undergraduate",
        "interestareas": [
            "Engineering",
            "Technology"
        ],
        "progcode": "UGES",
        "plancode": "TSIFTBS",
        "subplancode": "",
        "concentration": "",
        "crmdestination": "laurus",
        "shortdesc": "The Bachelor of Science in information technology provides you with the expertise to design, select, implement and administer computer-based information solutions. ",
        "degreeimage": "https://cms.asuonline.asu.edu/sites/default/files/program-images/Fotolia_163119167_Subscription_Monthly_M_cropped.jpg",
        "detailpage": "/online-degree-programs/undergraduate/bachelor-science-information-technology"
    },
    {
        "code": "UGNU-NUIHLTBS",
        "title": "Integrative Health (BS)",
        "category": "Undergraduate",
        "interestareas": [
            "Health & Nutrition"
        ],
        "progcode": "UGNU",
        "plancode": "NUIHLTBS",
        "subplancode": "",
        "concentration": "",
        "crmdestination": "laurus",
        "shortdesc": "The online Bachelor of Science in Integrative Health at ASU provides a foundation in integrative health, a holistic approach to wellness that focuses on the mind, body, and spirit. The program is based on research and evidence-based subject matter, as well as ethical, legal, and cultural foundations of integrative health care.",
        "degreeimage": "https://cms.asuonline.asu.edu/sites/default/files/program-images/Integrative-Health-BS_cropped.jpg",
        "detailpage": "/online-degree-programs/undergraduate/bachelor-science-integrative-health"
    },
    {
        "code": "UGLS-LSBISBIS",
        "title": "Interdisciplinary Studies (BA)",
        "category": "Undergraduate",
        "interestareas": [
            "Liberal Studies"
        ],
        "progcode": "UGLS",
        "plancode": "LSBISBIS",
        "subplancode": "",
        "concentration": "",
        "crmdestination": "laurus",
        "shortdesc": "ASU’s online Bachelor of Interdisciplinary Studies offers you the opportunity to design your major around multiple interests and prepares you for careers that cross-disciplinary boundaries. As a BIS student, you will learn about answering questions, solving problems and addressing contemporary social issues from multiple perspectives, all while designing your own educational plans.",
        "degreeimage": "https://cms.asuonline.asu.edu/sites/default/files/program-images/interdisciplinary-studies-BIS-cropped.jpg",
        "detailpage": "/online-degree-programs/undergraduate/bachelor-interdisciplinary-studies"
    },
    {
        "code": "UGLS-LSORGBIS",
        "title": "Interdisciplinary Studies - Organizational Studies (BA)",
        "category": "Undergraduate",
        "interestareas": [
            "Liberal Studies"
        ],
        "progcode": "UGLS",
        "plancode": "LSORGBIS",
        "subplancode": "",
        "concentration": "",
        "crmdestination": "laurus",
        "shortdesc": "The online Bachelor of Interdisciplinary Studies with a concentration in organizational studies is designed for students seeking an interdisciplinary degree and a desire to learn about the dynamics of contemporary organizations.",
        "degreeimage": "https://cms.asuonline.asu.edu/sites/default/files/program-images/Fotolia_70694601_Subscription_Monthly_M_cropped_0.jpg",
        "detailpage": "/online-degree-programs/undergraduate/bachelor-interdisciplinary-studies-organizational-studies"
    },
    {
        "code": "UGNH-NHIPHBIPH",
        "title": "International Public Health (BIPH)",
        "category": "Undergraduate",
        "interestareas": [
            "Health & Nutrition"
        ],
        "progcode": "UGNH",
        "plancode": "NHIPHBIPH",
        "subplancode": "",
        "concentration": "",
        "crmdestination": "laurus",
        "shortdesc": "Gain invaluable experience and insight into global health issues with the online Bachelor of International Public Health (BIPH) degree program, which leverages international expertise of three leading universities, ASU, UNSW Sydney and King’s College London. This tri-university global health program is essential to prepare for a career in international public health.",
        "degreeimage": "https://cms.asuonline.asu.edu/sites/default/files/program-images/Fotolia_173006325_Subscription_Monthly_M_cropped.jpg",
        "detailpage": "/online-degree-programs/undergraduate/bachelor-international-public-health"
    },
    {
        "code": "UGES-TSIWDBAS",
        "title": "Internet & Web Development (Applied Science BAS)",
        "category": "Undergraduate",
        "interestareas": [
            "Engineering",
            "Technology"
        ],
        "progcode": "UGES",
        "plancode": "TSIWDBAS",
        "subplancode": "",
        "concentration": "",
        "crmdestination": "laurus",
        "shortdesc": "ASU’s Bachelor of Applied Science in Internet and Web Development focuses on the development of web sites, including user experience design, usability, multimedia design, emerging Web technologies, and cross-media and cross-platform graphic applications. While the degree is entirely online, you will work with an adviser throughout your degree program to plan and schedule classes.",
        "degreeimage": "https://cms.asuonline.asu.edu/sites/default/files/program-images/Internet-of-Things-1_fotolia_cropped.jpg",
        "detailpage": "/online-degree-programs/undergraduate/bachelor-applied-science-internet-and-web-development"
    },
    {
        "code": "UGLA-LAJUSBS",
        "title": "Justice Studies (BS)",
        "category": "Undergraduate",
        "interestareas": [
            "Criminal Justice & Law",
            "Public Service & Public Policy"
        ],
        "progcode": "UGLA",
        "plancode": "LAJUSBS",
        "subplancode": "",
        "concentration": "",
        "crmdestination": "laurus",
        "shortdesc": "ASU’s Bachelor of Science in Justice Studies online program will enable students to study social justice and learn about the historical, cultural and social forces that shape our society. Students will gain skills needed to create meaning, real-world change through law, policy and social justice.",
        "degreeimage": "https://cms.asuonline.asu.edu/sites/default/files/program-images/Fotolia_90636362_Subscription_Monthly_M_cropped.jpg",
        "detailpage": "/online-degree-programs/undergraduate/bachelor-science-justice-studies"
    },
    {
        "code": "UGLS-LABLSBLS",
        "title": "Liberal Studies (BA)",
        "category": "Undergraduate",
        "interestareas": [
            "Liberal Studies"
        ],
        "progcode": "UGLS",
        "plancode": "LABLSBLS",
        "subplancode": "",
        "concentration": "",
        "crmdestination": "laurus",
        "shortdesc": "The Bachelor of Arts in Liberal Studies program offers you the opportunity to study a broad array of disciplines. This online program offered through ASU aims to provide you with the foundation to use knowledge in a manner that will help you become more successful thinkers, decision-makers and leaders.",
        "degreeimage": "https://cms.asuonline.asu.edu/sites/default/files/program-images/Fotolia_119407969_Subscription_Monthly_M_cropped_0.jpg",
        "detailpage": "/online-degree-programs/undergraduate/bachelor-liberal-studies"
    },
    {
        "code": "UGBA-BAMGTBS",
        "title": "Management (BS)",
        "category": "Undergraduate",
        "interestareas": [
            "Business"
        ],
        "progcode": "UGBA",
        "plancode": "BAMGTBS",
        "subplancode": "",
        "concentration": "",
        "crmdestination": "laurus",
        "shortdesc": "The Bachelor of Science in management prepares students to become effective managers and team leaders by building theoretical and conceptual knowledge and critical skills.",
        "degreeimage": "https://cms.asuonline.asu.edu/sites/default/files/program-images/Management-BS_cropped.jpg",
        "detailpage": "/online-degree-programs/undergraduate/bachelor-science-management"
    },
    {
        "code": "UGBA-BAMKTBS",
        "title": "Marketing (BS)",
        "category": "Undergraduate",
        "interestareas": [
            "Business",
            "Communication"
        ],
        "progcode": "UGBA",
        "plancode": "BAMKTBS",
        "subplancode": "",
        "concentration": "",
        "crmdestination": "laurus",
        "shortdesc": "The Bachelor of Science in marketing prepares students to steer organizations in the right direction, with fundamental marketing knowledge and skills in market analysis, decision-making and communication.",
        "degreeimage": "https://cms.asuonline.asu.edu/sites/default/files/program-images/Marketing_cropped.jpg",
        "detailpage": "/online-degree-programs/undergraduate/bachelor-science-marketing"
    },
    {
        "code": "UGCS-CSMCMSTBA",
        "title": "Mass Communication and Media Studies (BA)",
        "category": "Undergraduate",
        "interestareas": [
            "Communication"
        ],
        "progcode": "UGCS",
        "plancode": "CSMCMSTBA",
        "subplancode": "",
        "concentration": "",
        "crmdestination": "laurus",
        "shortdesc": "The Bachelor of Arts in Mass Communication and Media Studies at Arizona State University's Walter Cronkite School of Journalism and Mass Communication, one of the nation’s premier journalism schools, explores global mass communication issues from all dimensions: societal, cultural, historical, political, economic, technological and legal.",
        "degreeimage": "https://cms.asuonline.asu.edu/sites/default/files/program-images/CronkiteNight_w_light_rail_cropped.jpg",
        "detailpage": "/online-degree-programs/undergraduate/bachelor-arts-mass-communication-and-media-studies"
    },
    {
        "code": "UGNU-NUNURDBSN-NURRNBSN",
        "title": "Nursing - RN to BSN",
        "category": "Undergraduate",
        "interestareas": [
            "Health & Nutrition"
        ],
        "progcode": "UGNU",
        "plancode": "NUNURDBSN",
        "subplancode": "NURRNBSN",
        "concentration": "",
        "crmdestination": "laurus",
        "shortdesc": "ASU's RN to BSN prepares you as a nursing professional for the multi-faceted demands of the changing healthcare landscape through an innovative, online curriculum.",
        "degreeimage": "https://cms.asuonline.asu.edu/sites/default/files/program-images/ASU_2756.jpg",
        "detailpage": "/online-degree-programs/undergraduate/bachelor-science-nursing-rn-bsn"
    },
    {
        "code": "UGNH-NHNTRBS",
        "title": "Nutrition (BS)",
        "category": "Undergraduate",
        "interestareas": [
            "Health & Nutrition"
        ],
        "progcode": "UGNH",
        "plancode": "NHNTRBS",
        "subplancode": "",
        "concentration": "",
        "crmdestination": "laurus",
        "shortdesc": "Arizona State University's online bachelor of science in nutrition prepares students for careers in food production, service management, marketing and journalism around health and wellness topics.",
        "degreeimage": "https://cms.asuonline.asu.edu/sites/default/files/program-images/Nutrition_BS.jpg",
        "detailpage": "/online-degree-programs/undergraduate/bachelor-science-nutrition"
    },
    {
        "code": "UGES-TSIMCOBAS",
        "title": "Operations Management (Applied Science BAS)",
        "category": "Undergraduate",
        "interestareas": [
            "Business",
            "Engineering"
        ],
        "progcode": "UGES",
        "plancode": "TSIMCOBAS",
        "subplancode": "",
        "concentration": "",
        "crmdestination": "laurus",
        "shortdesc": "The Bachelor of Applied Sciences with a concentration in operations management technology, offered online through ASU’s Ira A. Fulton Schools of Engineering, will provide you with the tools needed for success as a manager, including organization, motivation and hiring skills, as well as resource development.",
        "degreeimage": "https://cms.asuonline.asu.edu/sites/default/files/program-images/operations-management-BAS_cropped.jpg",
        "detailpage": "/online-degree-programs/undergraduate/bachelor-applied-science-operations-management-technology"
    },
    {
        "code": "UGLS-LSORGLBA",
        "title": "Organizational Leadership (BA)",
        "category": "Undergraduate",
        "interestareas": [
            "Business"
        ],
        "progcode": "UGLS",
        "plancode": "LSORGLBA",
        "subplancode": "",
        "concentration": "",
        "crmdestination": "laurus",
        "shortdesc": "The Bachelor of Arts in organizational leadership will prepare you for leadership positions in a wide range of organizations and career fields. You will develop skills that can be used to help organizations function successfully, including problem solving, effective communication, program assessment, resource management and how to use emerging technologies.",
        "degreeimage": "https://cms.asuonline.asu.edu/sites/default/files/program-images/Fotolia_86653674_Subscription_Monthly_M_cropped.jpg",
        "detailpage": "/online-degree-programs/undergraduate/bachelor-arts-organizational-leadership"
    },
    {
        "code": "UGLS-LSORGLPMBA",
        "title": "Organizational Leadership - Project Management (BA)",
        "category": "Undergraduate",
        "interestareas": [
            "Business"
        ],
        "progcode": "UGLS",
        "plancode": "LSORGLPMBA",
        "subplancode": "",
        "concentration": "",
        "crmdestination": "laurus",
        "shortdesc": "This project management program is a concentration of the Organizational Leadership (OGL) Bachelor of Arts, which offers theory and practice driven curriculum to prepare students to be excellent project managers and project management leaders.",
        "degreeimage": "https://cms.asuonline.asu.edu/sites/default/files/program-images/anna_asu_thrive-2360-1_cropped_1.jpg",
        "detailpage": "/online-degree-programs/undergraduate/organizational-leadership-project-management-ba"
    },
    {
        "code": "UGLA-LAPHIBA",
        "title": "Philosophy (BA)",
        "category": "Undergraduate",
        "interestareas": [
            "Humanities & Social Sciences"
        ],
        "progcode": "UGLA",
        "plancode": "LAPHIBA",
        "subplancode": "",
        "concentration": "",
        "crmdestination": "laurus",
        "shortdesc": "ASU’s online Bachelor of Arts in Philosophy teaches you how to think well, which in turn lays the foundation for personal and professional success. You will also learn how to structure arguments, write precisely and clearly and communicate ideas in an orderly, persuasive, and unambiguous way.",
        "degreeimage": "https://cms.asuonline.asu.edu/sites/default/files/program-images/Philosophy-BA_cropped.jpg",
        "detailpage": "/online-degree-programs/undergraduate/bachelor-arts-philosophy"
    },
    {
        "code": "UGLA-LAPHIMPBA",
        "title": "Philosophy (Morality, Politics and Law) (BA)",
        "category": "Undergraduate",
        "interestareas": [
            "Humanities & Social Sciences"
        ],
        "progcode": "UGLA",
        "plancode": "LAPHIMPBA",
        "subplancode": "",
        "concentration": "",
        "crmdestination": "laurus",
        "shortdesc": "The bachelor of arts in philosophy with a concentration in morality, politics and law combines the basic analytical approaches of philosophy with an emphasis on the moral questions that arise in political theory and law. Students explore the nature of morality, political theory, legal theory and the interconnections between them.",
        "degreeimage": "https://cms.asuonline.asu.edu/sites/default/files/program-images/Philosophy---Morality%2C-Politics-%26-Law_cropped.jpg",
        "detailpage": "/online-degree-programs/undergraduate/philosophy-morality-politics-and-law-ba"
    },
    {
        "code": "UGLA-LAPOSBA",
        "title": "Political Science (BA)",
        "category": "Undergraduate",
        "interestareas": [
            "Criminal Justice & Law",
            "Public Service & Public Policy"
        ],
        "progcode": "UGLA",
        "plancode": "LAPOSBA",
        "subplancode": "",
        "concentration": "",
        "crmdestination": "laurus",
        "shortdesc": "ASU's online BA in Political Science provides you with the skills and knowledge to lead within a democratic system of government and in the rapid globalization of political institutions. You will be trained to link theory with real world problems and ideas, and while learning from renowned faculty, you will benefit from a classic yet contemporary liberal arts education.",
        "degreeimage": "https://cms.asuonline.asu.edu/sites/default/files/program-images/political-science-BA_cropped.jpg",
        "detailpage": "/online-degree-programs/undergraduate/bachelor-arts-political-science"
    },
    {
        "code": "UGLA-LAPOSBS",
        "title": "Political Science (BS)",
        "category": "Undergraduate",
        "interestareas": [
            "Criminal Justice & Law",
            "Public Service & Public Policy"
        ],
        "progcode": "UGLA",
        "plancode": "LAPOSBS",
        "subplancode": "",
        "concentration": "",
        "crmdestination": "laurus",
        "shortdesc": "Offered through The College of Liberal Arts and Sciences, the online Bachelor of Science in Political Science is the study of how citizens interact with their governments and how governments at all levels formulate policies to serve their citizens.",
        "degreeimage": "https://cms.asuonline.asu.edu/sites/default/files/program-images/political-science-BS_cropped.jpg",
        "detailpage": "/online-degree-programs/undergraduate/bachelor-science-political-science"
    },
    {
        "code": "UGAS-ASPGSBA",
        "title": "Psychology (BA)",
        "category": "Undergraduate",
        "interestareas": [
            "Humanities & Social Sciences"
        ],
        "progcode": "UGAS",
        "plancode": "ASPGSBA",
        "subplancode": "",
        "concentration": "",
        "crmdestination": "laurus",
        "shortdesc": "The accredited psychology degree from ASU Online equips students with skills in critical thinking, quantitative and qualitative research, and the ability to interact effectively with groups of people from diverse backgrounds.",
        "degreeimage": "https://cms.asuonline.asu.edu/sites/default/files/program-images/Psychology-Degree.jpg",
        "detailpage": "/online-degree-programs/undergraduate/bachelor-arts-psychology"
    },
    {
        "code": "UGAS-ASPGSBS",
        "title": "Psychology (BS)",
        "category": "Undergraduate",
        "interestareas": [
            "Humanities & Social Sciences"
        ],
        "progcode": "UGAS",
        "plancode": "ASPGSBS",
        "subplancode": "",
        "concentration": "",
        "crmdestination": "laurus",
        "shortdesc": "The Bachelor of Science in Psychology equips students with skills in critical thinking, quantitative and qualitative research and the ability to interact effectively with groups of people from diverse backgrounds. This degree has an additional focus on math and science coursework.",
        "degreeimage": "https://cms.asuonline.asu.edu/sites/default/files/program-images/Psychology-BS_cropped.jpg",
        "detailpage": "/online-degree-programs/undergraduate/bachelor-science-psychology"
    },
    {
        "code": "UGAS-ASPGSFPBA",
        "title": "Psychology - Forensic Psychology (BA)",
        "category": "Undergraduate",
        "interestareas": [
            "Criminal Justice & Law",
            "Humanities & Social Sciences",
            "Public Service & Public Policy"
        ],
        "progcode": "UGAS",
        "plancode": "ASPGSFPBA",
        "subplancode": "",
        "concentration": "",
        "crmdestination": "laurus",
        "shortdesc": "Forensic psychology is the application of psychology to the law. The online Bachelor of Arts in Psychology with a concentration in Forensic Psychology combines general training in psychology with specialized coursework in criminal law, criminal behavior, the diagnosis and treatment of mental disorders and legal decision-making.",
        "degreeimage": "https://cms.asuonline.asu.edu/sites/default/files/program-images/ForensicPsychology-PsychologyBA_DegreeImage.jpg",
        "detailpage": "/online-degree-programs/undergraduate/bachelor-arts-psychology-forensic-psychology"
    },
    {
        "code": "UGAS-ASPGSFPBS",
        "title": "Psychology - Forensic Psychology (BS)",
        "category": "Undergraduate",
        "interestareas": [
            "Criminal Justice & Law",
            "Humanities & Social Sciences",
            "Public Service & Public Policy"
        ],
        "progcode": "UGAS",
        "plancode": "ASPGSFPBS",
        "subplancode": "",
        "concentration": "",
        "crmdestination": "laurus",
        "shortdesc": "Crime and mental health is a global issue that is growing rapidly. With ASU’s online Bachelor of Science (BS) in Psychology with a concentration in Forensic Psychology, students will focus on the scientific process between law and psychology.",
        "degreeimage": "https://cms.asuonline.asu.edu/sites/default/files/program-images/ForensicPsychology-PsychologyBS_DegreeImage.jpg",
        "detailpage": "/online-degree-programs/undergraduate/bachelor-science-psychology-forensic-psychology"
    },
    {
        "code": "UGPP-PPPAFBS",
        "title": "Public Service and Public Policy (BS)",
        "category": "Undergraduate",
        "interestareas": [
            "Criminal Justice & Law",
            "Public Service & Public Policy"
        ],
        "progcode": "UGPP",
        "plancode": "PPPAFBS",
        "subplancode": "",
        "concentration": "",
        "crmdestination": "laurus",
        "shortdesc": "The online Bachelor of Science in public service and public policy prepares you for careers that transform government, nonprofit organizations, and policy at all levels.",
        "degreeimage": "https://cms.asuonline.asu.edu/sites/default/files/program-images/091031-2009_homecoming_parade_4687_21496382804_o_cropped.jpg",
        "detailpage": "/online-degree-programs/undergraduate/bachelor-science-public-service-and-public-policy"
    },
    {
        "code": "UGPP-PPPAFEHBS",
        "title": "Public Service and Public Policy - Emergency Management Homeland Security (BS)",
        "category": "Undergraduate",
        "interestareas": [
            "Criminal Justice & Law",
            "Public Service & Public Policy"
        ],
        "progcode": "UGPP",
        "plancode": "PPPAFEHBS",
        "subplancode": "",
        "concentration": "",
        "crmdestination": "laurus",
        "shortdesc": "Arizona State University’s Bachelor of Science in public service and public policy online degree with a concentration in emergency management and homeland security prepares you to tackle complex issues of both mitigation of and response to natural or man-made disasters.",
        "degreeimage": "https://cms.asuonline.asu.edu/sites/default/files/program-images/Fotolia_158892834_Subscription_Monthly_M_cropped.jpg",
        "detailpage": "/online-degree-programs/undergraduate/bachelor-science-public-service-and-public-policy-emergency"
    },
    {
        "code": "UGLA-LARELCPBA",
        "title": "Religious Studies - Religion, Culture and Public Life (BA)",
        "category": "Undergraduate",
        "interestareas": [
            "Humanities & Social Sciences"
        ],
        "progcode": "UGLA",
        "plancode": "LARELCPBA",
        "subplancode": "",
        "concentration": "",
        "crmdestination": "laurus",
        "shortdesc": "The online Bachelor of Arts in Religious Studies concentration in Religion, Culture and Public Life focuses on the study of the world’s religious beliefs, traditions, cultures and phenomena across the globe. Students will learn to work with diverse populations, analyze problems from multiple perspectives and find, critically analyze, and to clearly communicate information.",
        "degreeimage": "https://cms.asuonline.asu.edu/sites/default/files/program-images/Fotolia_189053205_Subscription_Monthly_M-cropped.jpg",
        "detailpage": "/online-degree-programs/undergraduate/religious-studies-religion-culture-and-public-life-ba"
    },
    {
        "code": "UGLA-LASOCBS",
        "title": "Sociology (BS)",
        "category": "Undergraduate",
        "interestareas": [
            "Humanities & Social Sciences"
        ],
        "progcode": "UGLA",
        "plancode": "LASOCBS",
        "subplancode": "",
        "concentration": "",
        "crmdestination": "laurus",
        "shortdesc": "The Bachelor of Science in Sociology offered online through Arizona State University studies social life, social change and the social causes and consequences of human behavior. As part of the School of Social and Family Dynamics, you will be provided with an excellent liberal arts education that enables you to develop strong research, analytical and critical thinking skills.",
        "degreeimage": "https://cms.asuonline.asu.edu/sites/default/files/program-images/Fotolia_170386650_Subscription_Monthly_M_cropped.png",
        "detailpage": "/online-degree-programs/undergraduate/bachelor-science-sociology"
    },
    {
        "code": "UGES-TSSERBS",
        "title": "Software Engineering (BS)",
        "category": "Undergraduate",
        "interestareas": [
            "Engineering",
            "Technology"
        ],
        "progcode": "UGES",
        "plancode": "TSSERBS",
        "subplancode": "",
        "concentration": "",
        "crmdestination": "laurus",
        "shortdesc": "The online bachelor of science in software engineering degree at Arizona State University emphasizes flexibility in the context of project-driven engineering education, blending engineering, computing, project leadership and software construction.",
        "degreeimage": "https://cms.asuonline.asu.edu/sites/default/files/program-images/software-engineering-BS_cropped.jpg",
        "detailpage": "/online-degree-programs/undergraduate/bachelor-science-software-engineering"
    },
    {
        "code": "UGLA-LASPABA",
        "title": "Spanish (BA)",
        "category": "Undergraduate",
        "interestareas": [
            "Language"
        ],
        "progcode": "UGLA",
        "plancode": "LASPABA",
        "subplancode": "",
        "concentration": "",
        "crmdestination": "laurus",
        "shortdesc": "Specialize in Spanish language and culture by earning your bachelor’s degree in Spanish at ASU Online with highly-qualified and specially-trained instructors. The flexible and socioculturally diverse undergraduate degree program emphasizes Spanish language skills and the complex cultural panorama of the many worldwide societies in which Spanish is spoken.",
        "degreeimage": "https://cms.asuonline.asu.edu/sites/default/files/program-images/spanish-BA_cropped.jpg",
        "detailpage": "/online-degree-programs/undergraduate/bachelor-arts-spanish"
    },
    {
        "code": "UGNH-LASHSBS",
        "title": "Speech and Hearing Science (BS)",
        "category": "Undergraduate",
        "interestareas": [
            "Health & Nutrition"
        ],
        "progcode": "UGNH",
        "plancode": "LASHSBS",
        "subplancode": "",
        "concentration": "",
        "crmdestination": "laurus",
        "shortdesc": "The online Bachelor of Science in Speech and Hearing Science prepares students to pursue graduate study in speech-language pathology or audiology. Students will focus on normal speech, language, and hearing processes across the lifespan, with an increased focus on communication disorders in upper-division coursework.",
        "degreeimage": "https://cms.asuonline.asu.edu/sites/default/files/program-images/Fotolia_182407487_Subscription_Monthly_M_cropped.jpg",
        "detailpage": "/online-degree-programs/undergraduate/speech-and-hearing-science-bs"
    },
    {
        "code": "UGBA-BASCMBS",
        "title": "Supply Chain Management (BS)",
        "category": "Undergraduate",
        "interestareas": [
            "Business"
        ],
        "progcode": "UGBA",
        "plancode": "BASCMBS",
        "subplancode": "",
        "concentration": "",
        "crmdestination": "laurus",
        "shortdesc": "Offered by the highly ranked Department of Supply Chain Management within ASU’s W. P. Carey School of Business, the 100% online business degree in supply chain management covers every aspect of integrated supply chain management. Graduates emerge with requisite preparation for careers in purchasing, logistics, operations, and beyond.",
        "degreeimage": "https://cms.asuonline.asu.edu/sites/default/files/program-images/AdobeStock_187312509.jpg",
        "detailpage": "/online-degree-programs/undergraduate/supply-chain-management-bs"
    },
    {
        "code": "UGSU-SUSUSTBA",
        "title": "Sustainability (BA)",
        "category": "Undergraduate",
        "interestareas": [
            "Sustainability"
        ],
        "progcode": "UGSU",
        "plancode": "SUSUSTBA",
        "subplancode": "",
        "concentration": "",
        "crmdestination": "laurus",
        "shortdesc": "The online Bachelor of Arts in sustainability at ASU will provide you with the skills to rethink and reinvent a world at risk and help create an improved quality of life for future generations.",
        "degreeimage": "https://cms.asuonline.asu.edu/sites/default/files/program-images/connectedpointsglobeskyline_SustainabilityBA_DegreePage.jpg",
        "detailpage": "/online-degree-programs/undergraduate/bachelor-arts-sustainability"
    },
    {
        "code": "UGSU-SUSUSTBS",
        "title": "Sustainability (BS)",
        "category": "Undergraduate",
        "interestareas": [
            "Sustainability"
        ],
        "progcode": "UGSU",
        "plancode": "SUSUSTBS",
        "subplancode": "",
        "concentration": "",
        "crmdestination": "laurus",
        "shortdesc": "The online Bachelor of Science in Sustainability at ASU will provide you with the skills to rethink and reinvent a world at risk and learn to create knowledge and solutions that will shape the quality of life for future generations.",
        "degreeimage": "https://cms.asuonline.asu.edu/sites/default/files/program-images/Fotolia_177220781_Subscription_Monthly_M_cropped.jpg",
        "detailpage": "/online-degree-programs/undergraduate/bachelor-science-sustainability"
    },
    {
        "code": "UGLS-LSTECBS",
        "title": "Technical Communication (BS)",
        "category": "Undergraduate",
        "interestareas": [
            "Communication"
        ],
        "progcode": "UGLS",
        "plancode": "LSTECBS",
        "subplancode": "",
        "concentration": "",
        "crmdestination": "laurus",
        "shortdesc": "Through Arizona State University's online Bachelor of Science in Technical Communication, you will learn how to produce, design and manage information, using both traditional and developing technologies. Technical communication is applied workplace communication that makes technical information understandable and available to many audiences.",
        "degreeimage": "https://cms.asuonline.asu.edu/sites/default/files/program-images/technicalwriting_fotolia.jpg",
        "detailpage": "/online-degree-programs/undergraduate/bachelor-science-technical-communication"
    },
    {
        "code": "UGLS-LSTECUBS",
        "title": "Technical Communication - User Experience (BS)",
        "category": "Undergraduate",
        "interestareas": [
            "Communication"
        ],
        "progcode": "UGLS",
        "plancode": "LSTECUBS",
        "subplancode": "",
        "concentration": "",
        "crmdestination": "laurus",
        "shortdesc": "The online interdisciplinary user experience (UX) concentration provides technical communication majors with a conceptual understanding and applied skills in gathering user information, analyzing data, and communicating research findings to stakeholders.",
        "degreeimage": "https://cms.asuonline.asu.edu/sites/default/files/program-images/Fotolia_140221794_Subscription_Monthly_M_cropped.jpg",
        "detailpage": "/online-degree-programs/undergraduate/technical-communication-user-experience-bs"
    },
    {
        "code": "UGES-TSTEM2BS",
        "title": "Technological Entrepreneurship and Management (BS)",
        "category": "Undergraduate",
        "interestareas": [
            "Engineering",
            "Technology"
        ],
        "progcode": "UGES",
        "plancode": "TSTEM2BS",
        "subplancode": "",
        "concentration": "",
        "crmdestination": "laurus",
        "shortdesc": "The Bachelor of Science in technological entrepreneurship and management, offered online at Arizona State University, delivers a foundation in technology-based innovation with an emphasis on leadership, entrepreneurship and management fundamentals, as well as a special focus on project leadership and process innovation and development.",
        "degreeimage": "https://cms.asuonline.asu.edu/sites/default/files/program-images/technological-entrepreneurship-%26-management-BS_cropped.jpg",
        "detailpage": "/online-degree-programs/undergraduate/bachelor-science-technological-entrepreneurship-and-management"
    },
    {
        "code": "UGPP-PPTRMBS",
        "title": "Tourism and Recreation Management (BS)",
        "category": "Undergraduate",
        "interestareas": [
            "Public Service & Public Policy"
        ],
        "progcode": "UGPP",
        "plancode": "PPTRMBS",
        "subplancode": "",
        "concentration": "",
        "crmdestination": "laurus",
        "shortdesc": "The online Bachelor of Science in Tourism and Recreation Management program is an integrated degree that includes a core providing the foundation for management of leisure enterprises. The core is enhanced by emphasis areas that direct students toward one of four specializations: tourism, recreation, events or sports.",
        "degreeimage": "https://cms.asuonline.asu.edu/sites/default/files/program-images/fotolia_129501290_subscription_monthly_m_cropped.jpg",
        "detailpage": "/online-degree-programs/undergraduate/tourism-and-recreation-management-bs"
    },
    {
        "code": "UGLA-ARPUPBSP",
        "title": "Urban Planning (BSP)",
        "category": "Undergraduate",
        "interestareas": [
            "Geographical Sciences & Urban Planning"
        ],
        "progcode": "UGLA",
        "plancode": "ARPUPBSP",
        "subplancode": "",
        "concentration": "",
        "crmdestination": "laurus",
        "shortdesc": "The online Bachelor of Science in Urban Planning degree at Arizona State University introduces you to the broader purpose of planning, while focusing on practice and application. The program offers expertise in the analysis and synthesis of the social, physical, economic and political factors that affect urban and regional development.",
        "degreeimage": "https://cms.asuonline.asu.edu/sites/default/files/program-images/urban-planning_cropped.jpg",
        "detailpage": "/online-degree-programs/undergraduate/bachelor-science-urban-planning"
    },
    {
        "code": "UGLA-LAWSTBA",
        "title": "Women and Gender Studies (BA)",
        "category": "Undergraduate",
        "interestareas": [
            "Humanities & Social Sciences"
        ],
        "progcode": "UGLA",
        "plancode": "LAWSTBA",
        "subplancode": "",
        "concentration": "",
        "crmdestination": "laurus",
        "shortdesc": "ASU’s online Bachelor of Arts in Women and Gender Studies empowers you to challenge the conventions of gender and make a difference through academic research, critical knowledge, and a deep understanding in feminist theory and practice.",
        "degreeimage": "https://cms.asuonline.asu.edu/sites/default/files/program-images/women-and-gender-studies_cropped.jpg",
        "detailpage": "/online-degree-programs/undergraduate/bachelor-arts-women-and-gender-studies"
    }
]